<?xml version="1.0" encoding="UTF-8"?>
<COLLADA xmlns="http://www.collada.org/2008/03/COLLADASchema" version="1.5.0">
	<asset>
		<contributor>
			<authoring_tool>CINEMA4D 15.057 COLLADA Exporter</authoring_tool>
		</contributor>
		<created>2015-05-13T22:21:28Z</created>
		<modified>2015-05-13T22:21:28Z</modified>
		<unit meter="0.01" name="centimeter"/>
		<up_axis>Y_UP</up_axis>
	</asset>
	<library_images>
		<image id="ID5">
			<init_from>
				<ref>escapePod.png</ref>
			</init_from>
		</image>
	</library_images>
	<library_effects>
		<effect id="ID2">
			<profile_COMMON>
				<technique sid="COMMON">
					<blinn>
						<diffuse>
							<color>0.8 0.8 0.8 1</color>
						</diffuse>
						<specular>
							<color>0.2 0.2 0.2 1</color>
						</specular>
						<shininess>
							<float>0.5</float>
						</shininess>
					</blinn>
				</technique>
			</profile_COMMON>
		</effect>
		<effect id="ID4">
			<profile_COMMON>
				<newparam sid="ID6">
					<sampler2D>
						<instance_image url="#ID5"/>
					</sampler2D>
				</newparam>
				<technique sid="COMMON">
					<blinn>
						<diffuse>
							<texture texture="ID6" texcoord="UVSET0"/>
						</diffuse>
						<specular>
							<color>0.2 0.2 0.2 1</color>
						</specular>
						<shininess>
							<float>0.5</float>
						</shininess>
					</blinn>
				</technique>
			</profile_COMMON>
		</effect>
	</library_effects>
	<library_materials>
		<material id="ID1" name="Mat">
			<instance_effect url="#ID2"/>
		</material>
		<material id="ID3" name="Mat">
			<instance_effect url="#ID4"/>
		</material>
	</library_materials>
	<library_geometries>
		<geometry id="ID9">
			<mesh>
				<source id="ID10">
					<float_array id="ID11" count="639" digits="2490374">0 63.6067 85.0651 0 -39.014 119.659 85.0651 0 52.5731 85.0651 -9.03906e-15 -52.5731 1.56948e-15 60.6213 -79.2945 -2.10189e-14 -39.014 -119.659 -85.0651 0 -52.5731 -85.0651 0 52.5731 52.5731 102.918 -0 -52.5731 102.918 -0 -78.547 -66.7468 2.1747e-14 78.5476 -66.7488 -2.84217e-16 33.4407 172.272 -0.00073311 -33.2491 171.722 -0.000724096 19.6771 86.8413 63.6823 40.3548 103.411 32.6477 -20.1774 88.3237 65.2955 -40.3548 103.411 32.6477 85.4729 39.4996 40.3548 73.0026 78.9991 20.1774 32.6477 48.8241 85.4729 65.2955 24.4121 73.0026 85.4729 39.4996 -40.3548 73.0026 78.9991 -20.1774 97.9432 0 20.1774 97.9432 0 -20.1774 20.1774 88.3237 -65.2955 40.3548 103.411 -32.6477 65.2955 24.4121 -73.0026 32.6477 48.8241 -85.4729 -20.1774 88.3237 -65.2955 -40.3548 103.411 -32.6477 -85.4729 39.4996 -40.3548 -73.0026 78.9991 -20.1774 -32.6477 48.8241 -85.4729 -65.2955 24.4121 -73.0026 -85.4729 39.4996 40.3548 -73.0026 78.9991 20.1774 -97.9432 0 -20.1774 -97.9432 0 20.1774 -32.6477 48.8241 85.4729 -65.2955 24.4121 73.0026 -30.0648 -76.1013 -1.93434e-16 30.065 -76.1033 -2.45296e-16 -30.2354 -57.9187 97.768 -60.2897 -67.0449 48.7973 30.2401 -57.9517 97.7825 60.2941 -67.0639 48.801 120.233 -25.4129 56.7663 109.544 -52.2168 30.282 45.9249 -30.6738 120.233 65.2955 -24.4121 73.0026 120.233 -25.4129 -56.7663 109.552 -52.2294 -30.284 65.2955 -24.4121 -73.0026 45.9249 -30.6738 -120.233 30.2359 -57.9223 -97.7695 60.2917 -67.0537 -48.799 -30.2359 -57.9223 -97.7695 -60.292 -67.0551 -48.7993 -45.9249 -30.6738 -120.233 -65.2955 -24.4121 -73.0026 -120.233 -25.4129 -56.7663 -109.549 -52.2256 -30.2834 -120.233 -25.4129 56.7663 -109.54 -52.2086 30.2807 -45.9249 -30.6738 120.233 -65.2955 -24.4121 73.0026 0 24.4121 97.9432 0 -24.4121 97.9432 0 24.4121 -97.9432 0 -24.4121 -97.9432 -9.40168e-15 113.023 35.6822 57.735 69.852 57.735 84.4986 40.3383 -1.83432e-15 57.735 69.852 -57.735 9.40168e-15 113.023 -35.6822 -57.735 69.852 -57.735 -93.4172 43.1709 -9.40168e-15 -57.735 69.852 57.735 1.34926e-14 -72.827 53.2423 81.2147 -42.5376 81.2147 131.408 -27.4842 1.32252e-14 81.2147 -42.5376 -81.2147 -2.08054e-16 -72.8243 -53.2418 -81.2147 -42.5376 -81.2147 -131.408 -27.4842 -1.32252e-14 -81.2147 -42.5376 81.2147 -35.6822 -1.13748e-14 93.4172 35.6822 0 93.4172 35.6822 1.13748e-14 -93.4172 -35.6822 1.13748e-14 -93.4172 25.4545 114.141 -25.0259 31.7232 113.787 -5.99793e-16 -31.7232 113.787 -2.99897e-16 -25.4545 114.141 25.0259 5.12257e-15 122.569 -28.0567 25.4545 114.141 25.0259 -25.4545 114.141 -25.0259 -6.83814e-15 122.569 28.0567 25.5727 122.747 -19.4622 25.5727 122.747 19.4622 0.00121628 130.568 -23.4385 30.1667 122.693 -5.64271e-16 0.00121649 130.569 23.4387 -25.5763 122.748 -19.4665 -25.5763 122.748 19.4665 -30.1733 122.694 -2.37935e-16 30.3588 144.886 -28.6586 38.2838 143.978 -7.6241e-16 0.00249464 155.419 -31.9166 30.3589 144.886 28.6586 -38.2884 143.973 -1.46271e-16 -30.3612 144.882 28.6603 -30.3611 144.882 -28.6603 0.00249499 155.421 31.9169 51.265 183.358 -38.1058 64.5348 180.169 -8.55296e-06 -0.00062492 201.404 -42.7763 51.266 183.357 38.105 -64.5275 180.172 -8.51634e-06 -51.2616 183.358 38.0999 -51.2606 183.359 -38.1006 -0.00062437 201.407 42.7752 47.708 186.797 -32.2983 58.9078 184.025 6.90193e-05 0.0052894 202.867 -36.4748 47.709 186.796 32.2975 -58.8486 183.957 6.90789e-05 -47.6631 186.734 32.2748 -47.6622 186.734 -32.2757 0.0052905 202.87 36.4737 37.8888 165.779 -16.2769 43.4183 164.214 0.000283649 0.022717 176.356 -19.0924 37.8895 165.778 16.2757 -43.2155 163.95 0.00028378 -37.7272 165.535 16.204 -37.7265 165.536 -16.2051 0.0227197 176.358 19.0911 87.2124 40.0501 31.2089 77.3347 71.7579 15.0567 87.2124 40.0501 -31.2089 77.3347 71.7579 -15.0567 97.2741 8.41156 15.0501 97.2741 8.41156 -15.0501 91.8555 41.5202 32.279 81.7813 73.9719 15.6026 91.8555 41.5202 -32.279 81.7813 73.9719 -15.6026 102.18 9.18457 15.5783 102.18 9.18457 -15.5783 93.7531 42.1245 22.4435 86.427 66.1888 10.1268 93.7531 42.1245 -22.4435 86.427 66.1888 -10.1268 101.453 18.2194 10.0999 101.453 18.2194 -10.0999 80.6284 37.9817 19.3179 73.8134 59.9824 8.52243 80.6284 37.9817 -19.3179 73.8134 59.9824 -8.52243 87.5793 15.973 8.56529 87.5793 15.973 -8.56529 20.8322 91.7462 -70.2427 33.6908 51.2774 -90.8942 -20.8322 91.7462 -70.2427 -33.6908 51.2774 -90.8942 0 26.301 -103.692 8.44484 78.7893 -80.9453 14.9624 57.9566 -91.194 -8.44484 78.7893 -80.9453 -14.9624 57.9566 -91.194 0 46.9959 -97.3038 6.94902 71.8603 -70.6612 12.5889 52.8623 -80.0931 -6.94902 71.8603 -70.6612 -12.5889 52.8623 -80.0931 -5.60857e-15 42.8687 -85.5036 0.731628 67.4308 90.5929 42.6887 108.503 36.4434 -20.1774 93.0401 70.1096 34.7483 52.2522 90.8855 0.800369 118.441 39.6555 60.6389 73.8856 62.3055 12.5697 78.7569 80.9691 31.9307 101.383 52.4992 0.627754 93.4962 69.3853 29.5684 71.2404 81.2032 11.2095 106.499 54.2309 42.0827 81.6395 67.1185 11.6696 73.7049 73.5876 28.7431 94.6662 47.4355 0.697293 87.3152 62.8919 26.7962 66.5927 74.0502 10.1106 99.3519 48.8619 38.1932 76.2393 61.0989 -43.7646 -40.7716 119.663 -123.159 -35.1135 51.8231 -80.6556 -52.1732 78.9349 -123.159 -35.1135 -51.8231 -132.248 -37.4065 -1.3676e-14 80.6626 -52.1904 78.9416 123.159 -35.1135 51.8231 3.81681e-16 -48.6035 118.467 43.7646 -40.7716 119.663 123.159 -35.1135 -51.8231 43.7646 -40.7716 -119.663 132.248 -37.4065 1.31075e-14 80.6556 -52.1732 -78.9349 -43.7646 -40.7716 -119.663 -2.33938e-14 -48.6035 -118.467 -80.6626 -52.1904 -78.9416</float_array>
					<technique_common>
						<accessor count="213" source="#ID11" stride="3">
							<param name="X" type="float"/>
							<param name="Y" type="float"/>
							<param name="Z" type="float"/>
						</accessor>
					</technique_common>
				</source>
				<source id="ID12">
					<float_array id="ID13" count="903" digits="2490374">0.62231 0.770623 0.137367 0.277417 0.91605 -0.289643 -0.00803802 0.974877 0.222599 -0.234466 0.819153 0.523463 0.277478 0.916033 0.289636 -0.00803786 0.974851 -0.222712 0.244893 0.813021 0.528228 -0.00797282 0.761577 0.648025 -0.0178267 0.608866 0.793073 0.637374 0.736233 0.227409 0.775665 0.463637 0.428234 0.641038 0.644055 0.417448 0.463964 0.668731 0.580979 0.80153 0.169135 0.573535 0.730718 0.323557 0.601134 0.549627 0.346811 0.760021 0.405272 0.525514 0.748057 0.21099 0.503254 0.837985 0.760391 0.649466 -0 0.893514 0.387828 -0.226324 0.878455 0.477825 -0 0.893514 0.387828 0.226324 0.924218 0.104105 -0.367401 0.956454 0.19673 -0.215622 0.992101 0.125438 8.10669e-16 0.956454 0.19673 0.215622 0.924218 0.104105 0.367401 0.637374 0.736233 -0.227409 0.449142 0.672415 -0.588328 0.641038 0.644055 -0.417448 0.775665 0.463637 -0.428234 0.248266 0.488885 -0.836274 0.405044 0.514097 -0.756071 0.549627 0.346811 -0.760021 0.730718 0.323557 -0.601134 0.80153 0.169135 -0.573535 -0.609714 0.781885 -0.130015 -0.609697 0.781897 0.130024 -0.284301 0.919235 -0.272361 0.234466 0.819153 -0.523463 -0.284363 0.919218 0.272355 -0.489021 0.860285 0.144112 -0.234466 0.819153 -0.523463 -5.40862e-16 0.767948 -0.640512 -1.86866e-15 0.609174 -0.793037 -0.248266 0.488885 -0.836274 -0.449142 0.672415 -0.588328 -0.405044 0.514097 -0.756071 -0.549627 0.346811 -0.760021 -0.637374 0.736233 -0.227409 -0.641038 0.644055 -0.417448 -0.775665 0.463637 -0.428234 -0.730718 0.323557 -0.601134 -0.80153 0.169135 -0.573535 -0.924218 0.104105 -0.367401 -0.895663 0.391009 -0.211895 -0.958382 0.197035 -0.206595 -0.994549 0.104267 -3.50228e-16 -0.760391 0.649466 2.6777e-16 -0.868855 0.495067 3.05965e-16 -0.895663 0.391009 0.211895 -0.958382 0.197035 0.206595 -0.924218 0.104105 0.367401 -0.637374 0.736233 0.227409 -0.449142 0.672415 0.588328 -0.641038 0.644055 0.417448 -0.775665 0.463637 0.428234 -0.214625 0.497197 0.840673 -0.405044 0.514097 0.756071 -0.549627 0.346811 0.760021 -0.730718 0.323557 0.601134 -0.80153 0.169135 0.573535 -0.516772 -0.799043 0.30737 0.275337 -0.831418 0.482632 0.517139 -0.798802 0.307381 0.189054 -0.979839 -0.0646039 -0.110332 -0.96265 -0.247249 0.424297 -0.905523 0.000237488 -0.35373 -0.911316 0.210659 -0.189056 -0.979829 0.064748 -0.353537 -0.911419 -0.210541 0.255176 0.490606 0.833181 -0.326079 -0.938192 -0.116053 0.242577 0.569037 0.785718 0.620712 0.702707 0.347735 -0.103489 -0.987466 0.119165 0.103293 -0.987489 -0.119144 0.274886 -0.831989 -0.481905 0.673172 -0.724092 -0.150101 0.220692 -0.925569 0.3076 0.553939 0.802908 0.220205 0.634673 0.772781 2.23499e-16 0.668109 0.736668 0.104645 -3.26898e-05 -0.998113 0.0614 0.553939 0.802908 -0.220205 0.668109 0.736668 -0.104645 -0.103267 -0.987498 -0.119093 -0.189058 -0.979843 -0.0645329 -0.11055 -0.962627 0.247242 0.255176 0.490606 -0.833181 0.620712 0.702707 -0.347735 0.242577 0.569037 -0.785718 0.103157 -0.987519 0.119018 -3.26897e-05 -0.99811 -0.0614512 0.110202 -0.962798 0.246732 -0.274792 -0.832058 0.481839 -0.326336 -0.938064 0.116366 0.189057 -0.979853 0.0643884 -0.000592666 -0.948379 0.317139 -0.673039 -0.724219 -0.150083 0.517014 -0.798644 -0.308 0.353884 -0.911284 0.210542 0.326426 -0.938073 0.11604 -0.0005953 -0.911587 0.411108 0.130968 -0.817455 0.560905 0.67274 -0.724505 0.150043 0 -0.948303 -0.317367 0.131116 -0.818128 -0.559888 -0.620712 0.702707 -0.347735 0.54658 -0.837407 0.000237763 0.325984 -0.93822 -0.11609 -0.255176 0.490606 -0.833181 -0.242577 0.569037 -0.785718 0.220563 -0.925485 -0.307944 0 -0.911842 -0.410542 0.110355 -0.962651 -0.247234 -0.553939 0.802908 -0.220205 -0.634673 0.772781 -2.23499e-16 -0.668109 0.736668 -0.104645 -0.27457 -0.831983 -0.482095 -0.553939 0.802908 0.220205 -0.668109 0.736668 0.104645 0.585628 -0.219138 0.780396 -0.131116 -0.818128 -0.559888 0.353572 -0.911287 -0.211054 -0.255176 0.490606 0.833181 -0.620712 0.702707 0.347735 -0.242577 0.569037 0.785718 -0.517241 -0.798634 -0.307645 -0.546367 -0.837546 0.000320672 -0.220116 -0.925662 -0.307732 -0.672457 -0.724776 0.150006 -0.220431 -0.925573 0.307773 -0.424424 -0.905463 0.000320301 0.155751 0.81972 0.551181 -0.729782 0.571601 0.375086 0.29389 0.571601 0.766094 -0.125833 -2.88749e-16 0.992051 -0.718617 2.02406e-16 0.695406 -0.567577 2.39637e-16 0.82332 -0.460208 0.170376 0.87131 -0.237854 0.170376 0.956241 -0.1284 0.309567 0.942169 0.718617 0 0.695406 0.729782 0.571601 0.375086 0.567577 0 0.82332 0.460208 0.170376 0.87131 -0.155751 0.81972 0.551181 -0.29389 0.571601 0.766094 0.125833 -2.9132e-16 0.992051 0.237854 0.170376 0.956241 0.1284 0.309567 0.942169 0.142142 0.326794 -0.934345 0.125833 2.88749e-16 -0.992051 0.237854 0.170376 -0.956241 0.460208 0.170376 -0.87131 -0.155751 0.81972 -0.551181 -0.29389 0.571601 -0.766094 0.729782 0.571601 -0.375086 0.567577 -0 -0.82332 0.718617 0 -0.695406 -0.142142 0.326794 -0.934345 -0.460208 0.170376 -0.87131 -0.237854 0.170376 -0.956241 -0.125833 2.88749e-16 -0.992051 -0.718617 -2.02406e-16 -0.695406 -0.567577 -2.39637e-16 -0.82332 -0.729782 0.571601 -0.375086 0.29389 0.571601 -0.766094 0.155751 0.81972 -0.551181 0.960355 0.152928 0.233089 -0.252232 0.693145 0.675225 0.489021 0.860285 0.144112 0.252232 0.693145 0.675225 0.489021 0.860285 -0.144112 0.252232 0.693145 -0.675225 -0.489021 0.860285 -0.144112 -0.252232 0.693145 -0.675225 0.00534276 -0.352524 0.935788 -0.960437 0.152315 -0.233155 -0.960437 0.152315 0.233155 0.272469 0.501521 -0.821119 0.272476 0.501486 0.821138 -0.272312 0.501334 -0.821286 -0.272319 0.501299 0.821305 0.960355 0.152928 -0.233089 0.622328 0.77061 -0.137359 0.00534917 -0.352527 -0.935786 0.914191 -0.323381 0.244293 -0.0052395 -0.352503 0.935796 -0.00524592 -0.352507 -0.935795 -0.914167 -0.32339 0.244373 -0.914167 -0.323389 -0.244374 0.914192 -0.32338 -0.244293 0.793739 -0.537391 0.284937 0.0115784 -0.236471 -0.97157 0.0115721 -0.236444 0.971576 -0.793879 -0.537161 -0.284982 -0.793878 -0.53717 0.284968 -0.0116388 -0.236399 -0.971586 -0.0116324 -0.236372 0.971593 0.79374 -0.537382 -0.284951 0.56606 0.8144 0.127783 0.335304 0.903371 -0.267381 0.335356 0.903363 0.26734 -0.556451 0.821618 -0.123719 -0.556448 0.82162 0.123719 -0.336056 0.904905 -0.261178 -0.336109 0.904897 0.261137 0.566063 0.814398 -0.127783 -0.74874 0.585833 -0.310143 0.106149 0.557007 0.823696 0.106191 0.556999 -0.823697 0.748811 0.585675 0.31027 0.74882 0.585674 -0.310249 -0.106964 0.555763 0.824431 -0.107007 0.555755 -0.824431 -0.748731 0.585833 0.310164 0.900191 0.385694 -0.202227 0.858149 0.5134 -0 0.900191 0.385694 0.202227 0.958951 0.202165 -0.198851 0.996851 0.0792988 4.01878e-16 0.958951 0.202165 0.198851 -0.30219 0.358061 -0.883444 -0.44572 0.895172 -0 -0.30219 0.358061 0.883444 -0.0384235 -0.466215 -0.883837 0.155654 -0.987812 7.29906e-17 -0.0384235 -0.466215 0.883837 0.900719 0.382729 -0.205483 0.858664 0.512539 -0 0.900719 0.382729 0.205483 0.958248 0.20321 -0.201165 0.996779 0.0801937 5.5142e-16 0.958248 0.20321 0.201165 0.30392 -0.351062 0.885657 0.441489 -0.897267 -0 0.30392 -0.351062 -0.885657 0.0441654 0.460153 0.88674 -0.159841 0.987143 -2.57322e-16 0.0441654 0.460153 -0.88674 0.951921 0.172123 0.253418 -5.68837e-16 0.82239 0.568924 -0.951921 0.172123 0.253418 0.635767 -0.737634 -0.227368 -0.635767 -0.737634 -0.227368 0.200761 0.490816 -0.847818 -8.08719e-16 0.636849 -0.770989 -0.200761 0.490816 -0.847818 0.140351 0.305496 -0.941793 -0.140351 0.305496 -0.941793 -0.951454 -0.160704 -0.262508 1.63778e-15 -0.829328 -0.558763 0.951454 -0.160704 -0.262508 -0.647791 0.727575 0.225834 0.647791 0.727575 0.225834 0.0756836 0.578032 -0.812497 -0.883293 0.345011 -0.317429 -0.841962 -0.385266 0.377718 0.835794 0.0231835 -0.548553 0.723136 -0.675819 0.142631 -0.339232 -0.741261 0.579183 0.238607 0.823287 0.51504 -0.00333591 0.766074 0.642744 0.0180715 0.631061 0.775522 0.439334 0.671483 0.596738 0.416074 0.506781 0.75502 0.210123 0.491933 0.844897 -0.0804216 -0.58332 0.808251 0.885656 -0.345004 0.310782 0.843057 0.392216 -0.367997 -0.833334 -0.0186065 0.552456 -0.72667 0.671562 -0.14476 0.348075 0.736786 -0.579647 -0.131134 -0.818211 0.559763 0.698088 -0.195055 0.688931 -0.00363858 -0.0887689 0.996046 0.974 0.142616 0.176028 0.974 0.142616 -0.176028 0.58562 -0.219754 -0.780229 -0.00363858 -0.0887689 -0.996046 0.697984 -0.195682 -0.688859 0.00363858 -0.0887689 -0.996046 -0.698088 -0.195055 -0.688931 -0.585628 -0.219138 -0.780396 -0.974 0.142616 -0.176028 -0.974 0.142616 0.176028 -0.58562 -0.219754 0.780229 0.00363858 -0.0887689 0.996046 -0.697984 -0.195682 0.688859</float_array>
					<technique_common>
						<accessor count="301" source="#ID13" stride="3">
							<param name="X" type="float"/>
							<param name="Y" type="float"/>
							<param name="Z" type="float"/>
						</accessor>
					</technique_common>
				</source>
				<source id="ID14">
					<float_array id="ID15" count="68" digits="2490374">0.732544 0.0366364 0.732544 0.274139 0.970062 0.274139 0.489815 0.489815 0.489815 1 1 1 0.0250592 0.827998 0.0250592 0.964219 0.16128 0.964219 1 0.489815 0.013123 0.0231934 0.013123 0.308746 0.298691 0.308746 0.019165 0.335316 0.019165 0.534436 0.218285 0.534436 0.218285 0.335316 0.970062 0.0366364 0.229919 0.0418496 0.229919 0.157189 0.345258 0.157189 0.345258 0.0418496 0.264566 0.0043335 0.264566 0.127648 0.387881 0.127648 0.387881 0.0043335 0.220967 0.0170594 0.220967 0.157057 0.360964 0.157057 0.360964 0.0170594 0.191782 0.0114034 0.191782 0.113183 0.293561 0.113183 0.293561 0.0114034</float_array>
					<technique_common>
						<accessor count="34" source="#ID15" stride="2">
							<param name="S" type="float"/>
							<param name="T" type="float"/>
						</accessor>
					</technique_common>
				</source>
				<vertices id="ID16">
					<input semantic="POSITION" source="#ID10"/>
				</vertices>
				<triangles count="422" material="Material1">
					<input offset="0" semantic="VERTEX" source="#ID16" set="0"/>
					<input offset="1" semantic="NORMAL" source="#ID12" set="0"/>
					<input offset="2" semantic="TEXCOORD" source="#ID14" set="0"/>
					<p>135 0 2 133 0 1 12 0 0 12 1 2 132 1 1 134 1 0 134 2 2 13 2 1 12 2 0 16 3 5 72 3 4 17 3 3 12 4 2 139 4 1 135 4 0 139 5 2 12 5 1 13 5 0 14 6 8 192 6 7 195 6 6 195 7 8 193 7 7 14 7 6 191 8 8 14 8 7 193 8 6 15 9 5 19 9 4 8 9 3 73 10 5 18 10 4 19 10 3 19 11 5 15 11 4 73 11 3 14 12 8 196 12 7 192 12 6 21 13 5 2 13 4 18 13 3 18 14 5 73 14 4 21 14 3 20 15 5 21 15 4 73 15 3 196 16 8 14 16 7 194 16 6 191 17 8 194 17 7 14 17 6 19 18 5 23 18 4 8 18 3 74 19 8 160 19 7 161 19 6 161 20 8 159 20 7 74 20 6 158 21 8 74 21 7 159 21 6 25 22 5 3 22 4 22 22 3 160 23 8 74 23 7 163 23 6 162 24 8 163 24 7 74 24 6 74 25 8 158 25 7 162 25 6 2 26 5 24 26 4 18 26 3 23 27 5 27 27 4 8 27 3 75 28 5 26 28 4 27 28 3 27 29 5 23 29 4 75 29 3 22 30 5 75 30 4 23 30 3 175 31 8 4 31 7 174 31 6 26 32 5 75 32 4 29 32 3 28 33 5 29 33 4 75 33 3 75 34 5 22 34 4 28 34 3 3 35 5 28 35 4 22 35 3 138 36 2 136 36 1 13 36 0 137 37 2 13 37 1 136 37 0 13 38 2 134 38 1 138 38 0 26 39 5 76 39 4 27 39 3 13 40 2 137 40 1 139 40 0 95 41 5 94 41 4 9 41 3 17 41 9 95 41 5 9 41 3 30 42 5 31 42 4 76 42 3 76 43 5 26 43 4 30 43 3 4 44 8 176 44 7 174 44 6 177 45 8 176 45 7 4 45 6 77 46 5 31 46 4 30 46 3 30 47 5 34 47 4 77 47 3 35 48 5 77 48 4 34 48 3 33 49 5 9 49 4 31 49 3 31 50 5 77 50 4 33 50 3 32 51 5 33 51 4 77 51 3 77 52 5 35 52 4 32 52 3 6 53 5 32 53 4 35 53 3 38 54 5 32 54 4 6 54 3 78 55 5 33 55 4 32 55 3 32 56 5 38 56 4 78 56 3 39 57 5 78 57 4 38 57 3 37 58 5 9 58 4 33 58 3 33 59 5 78 59 4 37 59 3 36 60 5 37 60 4 78 60 3 78 61 5 39 61 4 36 61 3 7 62 5 36 62 4 39 62 3 37 63 5 17 63 4 9 63 3 79 64 5 16 64 4 17 64 3 17 65 5 37 65 4 79 65 3 36 66 5 79 66 4 37 66 3 40 67 5 0 67 4 16 67 3 16 68 5 79 68 4 40 68 3 41 69 5 40 69 4 79 69 3 79 70 5 36 70 4 41 70 3 7 71 5 41 71 4 36 71 3 65 72 12 199 72 11 198 72 10 202 73 12 205 73 11 46 73 10 202 74 12 49 74 11 203 74 10 11 75 12 43 75 11 57 75 10 84 76 12 59 76 11 58 76 10 11 77 12 53 77 11 49 77 10 199 78 12 65 78 11 45 78 10 45 79 12 10 79 11 42 79 10 212 80 12 59 80 11 63 80 10 51 81 5 48 81 4 2 81 3 10 82 12 63 82 11 59 82 10 48 83 5 51 83 4 81 83 3 50 84 5 81 84 4 51 84 3 42 85 12 80 85 11 45 85 10 84 86 12 57 86 11 43 86 10 207 87 12 209 87 11 56 87 10 53 88 12 206 88 11 208 88 10 46 89 12 47 89 11 202 89 10 48 90 5 24 90 4 2 90 3 82 91 5 25 91 4 24 91 3 24 92 5 48 92 4 82 92 3 80 93 12 42 93 11 43 93 10 52 94 5 3 94 4 25 94 3 25 95 5 82 95 4 52 95 3 59 96 12 84 96 11 42 96 10 42 97 12 10 97 11 59 97 10 44 98 12 45 98 11 80 98 10 52 99 5 54 99 4 3 99 3 83 100 5 55 100 4 54 100 3 54 101 5 52 101 4 83 101 3 43 102 12 47 102 11 80 102 10 43 103 12 42 103 11 84 103 10 46 104 12 80 104 11 47 104 10 197 105 12 199 105 11 44 105 10 10 106 12 45 106 11 65 106 10 47 107 12 43 107 11 11 107 10 80 108 12 46 108 11 44 108 10 63 109 12 201 109 11 200 109 10 53 110 12 209 110 11 206 110 10 49 111 12 202 111 11 47 111 10 47 112 12 11 112 11 49 112 10 204 113 12 44 113 11 46 113 10 204 114 12 46 114 11 205 114 10 49 115 12 208 115 11 203 115 10 58 116 12 56 116 11 84 116 10 56 117 12 211 117 11 207 117 10 85 118 5 61 118 4 60 118 3 208 119 12 49 119 11 53 119 10 11 120 12 57 120 11 53 120 10 62 121 5 6 121 4 61 121 3 61 122 5 85 122 4 62 122 3 57 123 12 56 123 11 209 123 10 56 124 12 58 124 11 211 124 10 57 125 12 84 125 11 56 125 10 62 126 5 38 126 4 6 126 3 86 127 5 39 127 4 38 127 3 38 128 5 62 128 4 86 128 3 210 129 12 58 129 11 212 129 10 64 130 5 7 130 4 39 130 3 39 131 5 86 131 4 64 131 3 202 132 15 203 132 14 48 132 13 81 132 16 202 132 15 48 132 13 58 133 12 210 133 11 211 133 10 209 134 12 53 134 11 57 134 10 64 135 5 67 135 4 7 135 3 87 136 5 66 136 4 67 136 3 67 137 5 64 137 4 87 137 3 63 138 12 200 138 11 212 138 10 201 139 12 63 139 11 65 139 10 59 140 12 212 140 11 58 140 10 65 141 12 198 141 11 201 141 10 45 142 12 44 142 11 199 142 10 10 143 12 65 143 11 63 143 10 69 144 5 66 144 4 1 144 3 88 145 5 67 145 4 66 145 3 66 146 5 69 146 4 88 146 3 68 147 5 88 147 4 69 147 3 41 148 5 7 148 4 67 148 3 67 149 5 88 149 4 41 149 3 40 150 5 41 150 4 88 150 3 88 151 5 68 151 4 40 151 3 0 152 5 40 152 4 68 152 3 21 153 5 51 153 4 2 153 3 89 154 5 50 154 4 51 154 3 51 155 5 21 155 4 89 155 3 20 156 5 89 156 4 21 156 3 69 157 5 1 157 4 50 157 3 50 158 5 89 158 4 69 158 3 68 159 5 69 159 4 89 159 3 89 160 5 20 160 4 68 160 3 0 161 5 68 161 4 20 161 3 175 162 8 178 162 7 4 162 6 90 163 5 71 163 4 70 163 3 70 164 5 29 164 4 90 164 3 28 165 5 90 165 4 29 165 3 55 166 5 5 166 4 71 166 3 71 167 5 90 167 4 55 167 3 54 168 5 55 168 4 90 168 3 90 169 5 28 169 4 54 169 3 3 170 5 54 170 4 28 170 3 178 171 8 177 171 7 4 171 6 91 172 5 35 172 4 34 172 3 34 173 5 70 173 4 91 173 3 71 174 5 91 174 4 70 174 3 61 175 5 6 175 4 35 175 3 35 176 5 91 176 4 61 176 3 60 177 5 61 177 4 91 177 3 91 178 5 71 178 4 60 178 3 5 179 5 60 179 4 71 179 3 103 180 5 101 180 4 97 180 3 93 180 9 103 180 5 97 180 3 99 181 5 95 181 4 17 181 3 72 181 9 99 181 5 17 181 3 93 182 5 97 182 4 15 182 3 8 182 9 93 182 5 15 182 3 97 183 5 99 183 4 72 183 3 15 183 9 97 183 5 72 183 3 92 184 5 93 184 4 8 184 3 27 184 9 92 184 5 8 184 3 96 185 5 92 185 4 27 185 3 76 185 9 96 185 5 27 185 3 94 186 5 98 186 4 31 186 3 9 186 9 94 186 5 31 186 3 98 187 5 96 187 4 76 187 3 31 187 9 98 187 5 76 187 3 111 188 2 115 188 1 104 188 0 101 188 17 111 188 2 104 188 0 107 189 5 105 189 4 98 189 3 94 189 9 107 189 5 98 189 3 106 190 5 107 190 4 94 190 3 95 190 9 106 190 5 94 190 3 102 191 5 100 191 4 92 191 3 96 191 9 102 191 5 92 191 3 101 192 5 104 192 4 99 192 3 97 192 9 101 192 5 99 192 3 105 193 5 102 193 4 96 193 3 98 193 9 105 193 5 96 193 3 104 194 5 106 194 4 95 194 3 99 194 9 104 194 5 95 194 3 100 195 5 103 195 4 93 195 3 92 195 9 100 195 5 93 195 3 132 196 2 12 196 1 133 196 0 110 197 2 108 197 1 100 197 0 102 197 17 110 197 2 100 197 0 109 198 2 111 198 1 101 198 0 103 198 17 109 198 2 101 198 0 115 199 2 113 199 1 106 199 0 104 199 17 115 199 2 106 199 0 114 200 2 110 200 1 102 200 0 105 200 17 114 200 2 102 200 0 113 201 2 112 201 1 107 201 0 106 201 17 113 201 2 107 201 0 112 202 2 114 202 1 105 202 0 107 202 17 112 202 2 105 202 0 108 203 2 109 203 1 103 203 0 100 203 17 108 203 2 103 203 0 117 204 2 119 204 1 111 204 0 109 204 17 117 204 2 111 204 0 118 205 2 116 205 1 108 205 0 110 205 17 118 205 2 108 205 0 119 206 2 123 206 1 115 206 0 111 206 17 119 206 2 115 206 0 120 207 2 122 207 1 114 207 0 112 207 17 120 207 2 114 207 0 121 208 2 120 208 1 112 208 0 113 208 17 121 208 2 112 208 0 122 209 2 118 209 1 110 209 0 114 209 17 122 209 2 110 209 0 123 210 2 121 210 1 113 210 0 115 210 17 123 210 2 113 210 0 116 211 2 117 211 1 109 211 0 108 211 17 116 211 2 109 211 0 125 212 2 127 212 1 119 212 0 117 212 17 125 212 2 119 212 0 126 213 2 124 213 1 116 213 0 118 213 17 126 213 2 116 213 0 127 214 2 131 214 1 123 214 0 119 214 17 127 214 2 123 214 0 128 215 2 130 215 1 122 215 0 120 215 17 128 215 2 122 215 0 129 216 2 128 216 1 120 216 0 121 216 17 129 216 2 120 216 0 130 217 2 126 217 1 118 217 0 122 217 17 130 217 2 118 217 0 131 218 2 129 218 1 121 218 0 123 218 17 131 218 2 121 218 0 124 219 2 125 219 1 117 219 0 116 219 17 124 219 2 117 219 0 133 220 2 135 220 1 127 220 0 125 220 17 133 220 2 127 220 0 134 221 2 132 221 1 124 221 0 126 221 17 134 221 2 124 221 0 135 222 2 139 222 1 131 222 0 127 222 17 135 222 2 131 222 0 136 223 2 138 223 1 130 223 0 128 223 17 136 223 2 130 223 0 137 224 2 136 224 1 128 224 0 129 224 17 137 224 2 128 224 0 138 225 2 134 225 1 126 225 0 130 225 17 138 225 2 126 225 0 139 226 2 137 226 1 129 226 0 131 226 17 139 226 2 129 226 0 132 227 2 133 227 1 125 227 0 124 227 17 132 227 2 125 227 0 143 228 5 142 228 4 22 228 3 23 228 9 143 228 5 22 228 3 141 229 5 143 229 4 23 229 3 19 229 9 141 229 5 23 229 3 140 230 5 141 230 4 19 230 3 18 230 9 140 230 5 19 230 3 142 231 5 145 231 4 25 231 3 22 231 9 142 231 5 25 231 3 145 232 5 144 232 4 24 232 3 25 232 9 145 232 5 24 232 3 144 233 5 140 233 4 18 233 3 24 233 9 144 233 5 18 233 3 149 234 20 148 234 19 142 234 18 143 234 21 149 234 20 142 234 18 147 235 20 149 235 19 143 235 18 141 235 21 147 235 20 143 235 18 146 236 20 147 236 19 141 236 18 140 236 21 146 236 20 141 236 18 148 237 20 151 237 19 145 237 18 142 237 21 148 237 20 145 237 18 151 238 20 150 238 19 144 238 18 145 238 21 151 238 20 144 238 18 150 239 20 146 239 19 140 239 18 144 239 21 150 239 20 140 239 18 155 240 20 154 240 19 148 240 18 149 240 21 155 240 20 148 240 18 153 241 20 155 241 19 149 241 18 147 241 21 153 241 20 149 241 18 152 242 20 153 242 19 147 242 18 146 242 21 152 242 20 147 242 18 154 243 20 157 243 19 151 243 18 148 243 21 154 243 20 151 243 18 157 244 20 156 244 19 150 244 18 151 244 21 157 244 20 150 244 18 156 245 20 152 245 19 146 245 18 150 245 21 156 245 20 146 245 18 161 246 20 160 246 19 154 246 18 155 246 21 161 246 20 154 246 18 159 247 5 161 247 4 155 247 3 153 247 9 159 247 5 155 247 3 158 248 20 159 248 19 153 248 18 152 248 21 158 248 20 153 248 18 160 249 20 163 249 19 157 249 18 154 249 21 160 249 20 157 249 18 163 250 20 162 250 19 156 250 18 157 250 21 163 250 20 156 250 18 162 251 20 158 251 19 152 251 18 156 251 21 162 251 20 152 251 18 165 252 24 164 252 23 26 252 22 29 252 25 165 252 24 26 252 22 164 253 24 166 253 23 30 253 22 26 253 25 164 253 24 30 253 22 166 254 24 167 254 23 34 254 22 30 254 25 166 254 24 34 254 22 168 255 24 165 255 23 29 255 22 70 255 25 168 255 24 29 255 22 167 256 24 168 256 23 70 256 22 34 256 25 167 256 24 70 256 22 170 257 24 169 257 23 164 257 22 165 257 25 170 257 24 164 257 22 169 258 24 171 258 23 166 258 22 164 258 25 169 258 24 166 258 22 171 259 24 172 259 23 167 259 22 166 259 25 171 259 24 167 259 22 173 260 24 170 260 23 165 260 22 168 260 25 173 260 24 165 260 22 172 261 24 173 261 23 168 261 22 167 261 25 172 261 24 168 261 22 175 262 24 174 262 23 169 262 22 170 262 25 175 262 24 169 262 22 174 263 24 176 263 23 171 263 22 169 263 25 174 263 24 171 263 22 176 264 24 177 264 23 172 264 22 171 264 25 176 264 24 172 264 22 178 265 24 175 265 23 170 265 22 173 265 25 178 265 24 170 265 22 177 266 28 178 266 27 173 266 26 172 266 29 177 266 28 173 266 26 183 267 32 180 267 31 15 267 30 72 267 33 183 267 32 15 267 30 181 268 32 183 268 31 72 268 30 16 268 33 181 268 32 72 268 30 179 269 32 181 269 31 16 269 30 0 269 33 179 269 32 16 269 30 180 270 32 184 270 31 73 270 30 15 270 33 180 270 32 73 270 30 184 271 32 182 271 31 20 271 30 73 271 33 184 271 32 20 271 30 182 272 32 179 272 31 0 272 30 20 272 33 182 272 32 0 272 30 189 273 32 186 273 31 180 273 30 183 273 33 189 273 32 180 273 30 187 274 32 189 274 31 183 274 30 181 274 33 187 274 32 183 274 30 185 275 32 187 275 31 181 275 30 179 275 33 185 275 32 181 275 30 186 276 32 190 276 31 184 276 30 180 276 33 186 276 32 184 276 30 190 277 32 188 277 31 182 277 30 184 277 33 190 277 32 182 277 30 188 278 32 185 278 31 179 278 30 182 278 33 188 278 32 179 278 30 195 279 32 192 279 31 186 279 30 189 279 33 195 279 32 186 279 30 193 280 32 195 280 31 189 280 30 187 280 33 193 280 32 189 280 30 191 281 32 193 281 31 187 281 30 185 281 33 191 281 32 187 281 30 192 282 32 196 282 31 190 282 30 186 282 33 192 282 32 190 282 30 196 283 32 194 283 31 188 283 30 190 283 33 196 283 32 188 283 30 194 284 32 191 284 31 185 284 30 188 284 33 194 284 32 185 284 30 44 285 12 204 285 11 197 285 10 205 286 15 202 286 14 81 286 13 50 286 16 205 286 15 81 286 13 204 287 15 205 287 14 50 287 13 1 287 16 204 287 15 50 287 13 203 288 15 208 288 14 82 288 13 48 288 16 203 288 15 82 288 13 208 289 15 206 289 14 52 289 13 82 289 16 208 289 15 52 289 13 206 290 15 209 290 14 83 290 13 52 290 16 206 290 15 83 290 13 207 291 15 211 291 14 5 291 13 55 291 16 207 291 15 5 291 13 209 292 15 207 292 14 55 292 13 83 292 16 209 292 15 55 292 13 211 293 15 210 293 14 60 293 13 5 293 16 211 293 15 60 293 13 210 294 15 212 294 14 85 294 13 60 294 16 210 294 15 85 294 13 212 295 15 200 295 14 62 295 13 85 295 16 212 295 15 62 295 13 200 296 15 201 296 14 86 296 13 62 296 16 200 296 15 86 296 13 201 297 15 198 297 14 64 297 13 86 297 16 201 297 15 64 297 13 198 298 15 199 298 14 87 298 13 64 298 16 198 298 15 87 298 13 197 299 15 204 299 14 1 299 13 66 299 16 197 299 15 1 299 13 199 300 15 197 300 14 66 300 13 87 300 16 199 300 15 66 300 13</p>
				</triangles>
			</mesh>
		</geometry>
	</library_geometries>
	<library_visual_scenes>
		<visual_scene id="ID7">
			<node id="ID8" name="Sphere">
				<translate sid="translate">0 0 -0</translate>
				<rotate sid="rotateY">0 1 0 -0</rotate>
				<rotate sid="rotateX">1 0 0 0</rotate>
				<rotate sid="rotateZ">0 0 1 -0</rotate>
				<scale sid="scale">1 1 1</scale>
				<instance_geometry url="#ID9">
					<bind_material>
						<technique_common>
							<instance_material symbol="Material1" target="#ID3">
								<bind_vertex_input semantic="UVSET0" input_semantic="TEXCOORD" input_set="0"/>
							</instance_material>
						</technique_common>
					</bind_material>
				</instance_geometry>
			</node>
		</visual_scene>
	</library_visual_scenes>
	<scene>
		<instance_visual_scene url="#ID7"/>
	</scene>
</COLLADA>
